simulation/vcd/Carrier.vcd
$date
	Fri May 24 19:27:45 2024
$end
$version
	Icarus Verilog
$end
$timescale
	1ps
$end
$scope module Carrier_tb $end
$var wire 16 ! carrier_sig [15:0] $end
$var parameter 32 " PERIOD $end
$var reg 1 # clk_sig $end
$var reg 1 $ rst_n $end
$scope module u_Carrier $end
$var wire 1 # clk_sig $end
$var wire 1 $ rst_n $end
$var wire 1 % flag_sig $end
$var wire 6 & counter_sig [5:0] $end
$var wire 15 ' carrier_reg [14:0] $end
$var parameter 2 ( III_QURTER $end
$var parameter 2 ) II_QURTER $end
$var parameter 2 * IV_QURTER $end
$var parameter 2 + I_QURTER $end
$var reg 7 , addr_sig [6:0] $end
$var reg 16 - carrier_sig [15:0] $end
$var reg 2 . state_reg [1:0] $end
$scope module counter_inst $end
$var wire 1 # clk_sig $end
$var wire 1 $ reset_sig $end
$var parameter 32 / NUM $end
$var reg 1 % carry_sig $end
$var reg 6 0 counter_sig [5:0] $end
$upscope $end
$scope module rom_inst $end
$var wire 7 1 addr_sig [6:0] $end
$var wire 15 2 q_sig [14:0] $end
$var parameter 32 3 DEPTH $end
$var parameter 32 4 WIDTH $end
$upscope $end
$upscope $end
$upscope $end
$enddefinitions $end
$comment Show the parameter values. $end
$dumpall
b1111 4
b1000001 3
b1000000 /
b0 +
b11 *
b1 )
b10 (
b1010 "
$end
#0
$dumpvars
bx 2
bx 1
b0 0
bx .
bx -
bx ,
bx '
b0 &
x%
0$
0#
bx !
$end
#5000
0%
b0 '
b0 2
b0 ,
b0 1
b0 .
1#
#10000
0#
#15000
1#
#20000
0#
1$
#25000
b1 &
b1 0
b0 !
b0 -
1#
#30000
0#
#35000
b110010010 '
b110010010 2
b1 ,
b1 1
b10 &
b10 0
1#
#40000
0#
#45000
b11 &
b11 0
b1100100100 '
b1100100100 2
b10 ,
b10 1
b110010010 !
b110010010 -
1#
#50000
0#
#55000
b10010110110 '
b10010110110 2
b11 ,
b11 1
b1100100100 !
b1100100100 -
b100 &
b100 0
1#
#60000
0#
#65000
b101 &
b101 0
b11001000111 '
b11001000111 2
b100 ,
b100 1
b10010110110 !
b10010110110 -
1#
#70000
0#
#75000
b11111011001 '
b11111011001 2
b101 ,
b101 1
b11001000111 !
b11001000111 -
b110 &
b110 0
1#
#80000
0#
#85000
b111 &
b111 0
b100101101010 '
b100101101010 2
b110 ,
b110 1
b11111011001 !
b11111011001 -
1#
#90000
0#
#95000
b101011111011 '
b101011111011 2
b111 ,
b111 1
b100101101010 !
b100101101010 -
b1000 &
b1000 0
1#
#100000
0#
#105000
b1001 &
b1001 0
b110010001011 '
b110010001011 2
b1000 ,
b1000 1
b101011111011 !
b101011111011 -
1#
#110000
0#
#115000
b111000011011 '
b111000011011 2
b1001 ,
b1001 1
b110010001011 !
b110010001011 -
b1010 &
b1010 0
1#
#120000
0#
#125000
b1011 &
b1011 0
b111110101011 '
b111110101011 2
b1010 ,
b1010 1
b111000011011 !
b111000011011 -
1#
#130000
0#
#135000
b1000100111001 '
b1000100111001 2
b1011 ,
b1011 1
b111110101011 !
b111110101011 -
b1100 &
b1100 0
1#
#140000
0#
#145000
b1101 &
b1101 0
b1001011000111 '
b1001011000111 2
b1100 ,
b1100 1
b1000100111001 !
b1000100111001 -
1#
#150000
0#
#155000
b1010001010101 '
b1010001010101 2
b1101 ,
b1101 1
b1001011000111 !
b1001011000111 -
b1110 &
b1110 0
1#
#160000
0#
#165000
b1111 &
b1111 0
b1010111100001 '
b1010111100001 2
b1110 ,
b1110 1
b1010001010101 !
b1010001010101 -
1#
#170000
0#
#175000
b1011101101101 '
b1011101101101 2
b1111 ,
b1111 1
b1010111100001 !
b1010111100001 -
b10000 &
b10000 0
1#
#180000
0#
#185000
b10001 &
b10001 0
b1100011111000 '
b1100011111000 2
b10000 ,
b10000 1
b1011101101101 !
b1011101101101 -
1#
#190000
0#
#195000
b1101010000010 '
b1101010000010 2
b10001 ,
b10001 1
b1100011111000 !
b1100011111000 -
b10010 &
b10010 0
1#
#200000
0#
#205000
b10011 &
b10011 0
b1110000001011 '
b1110000001011 2
b10010 ,
b10010 1
b1101010000010 !
b1101010000010 -
1#
#210000
0#
#215000
b1110110010011 '
b1110110010011 2
b10011 ,
b10011 1
b1110000001011 !
b1110000001011 -
b10100 &
b10100 0
1#
#220000
0#
#225000
b10101 &
b10101 0
b1111100011001 '
b1111100011001 2
b10100 ,
b10100 1
b1110110010011 !
b1110110010011 -
1#
#230000
0#
#235000
b10000010011111 '
b10000010011111 2
b10101 ,
b10101 1
b1111100011001 !
b1111100011001 -
b10110 &
b10110 0
1#
#240000
0#
#245000
b10111 &
b10111 0
b10001000100011 '
b10001000100011 2
b10110 ,
b10110 1
b10000010011111 !
b10000010011111 -
1#
#250000
0#
#255000
b10001110100110 '
b10001110100110 2
b10111 ,
b10111 1
b10001000100011 !
b10001000100011 -
b11000 &
b11000 0
1#
#260000
0#
#265000
b11001 &
b11001 0
b10010100100111 '
b10010100100111 2
b11000 ,
b11000 1
b10001110100110 !
b10001110100110 -
1#
#270000
0#
#275000
b10011010100111 '
b10011010100111 2
b11001 ,
b11001 1
b10010100100111 !
b10010100100111 -
b11010 &
b11010 0
1#
#280000
0#
#285000
b11011 &
b11011 0
b10100000100110 '
b10100000100110 2
b11010 ,
b11010 1
b10011010100111 !
b10011010100111 -
1#
#290000
0#
#295000
b10100110100011 '
b10100110100011 2
b11011 ,
b11011 1
b10100000100110 !
b10100000100110 -
b11100 &
b11100 0
1#
#300000
0#
#305000
b11101 &
b11101 0
b10101100011110 '
b10101100011110 2
b11100 ,
b11100 1
b10100110100011 !
b10100110100011 -
1#
#310000
0#
#315000
b10110010011000 '
b10110010011000 2
b11101 ,
b11101 1
b10101100011110 !
b10101100011110 -
b11110 &
b11110 0
1#
#320000
0#
#325000
b11111 &
b11111 0
b10111000010000 '
b10111000010000 2
b11110 ,
b11110 1
b10110010011000 !
b10110010011000 -
1#
#330000
0#
#335000
b10111110000110 '
b10111110000110 2
b11111 ,
b11111 1
b10111000010000 !
b10111000010000 -
b100000 &
b100000 0
1#
#340000
0#
#345000
b100001 &
b100001 0
b11000011111011 '
b11000011111011 2
b100000 ,
b100000 1
b10111110000110 !
b10111110000110 -
1#
#350000
0#
#355000
b11001001101101 '
b11001001101101 2
b100001 ,
b100001 1
b11000011111011 !
b11000011111011 -
b100010 &
b100010 0
1#
#360000
0#
#365000
b100011 &
b100011 0
b11001111011110 '
b11001111011110 2
b100010 ,
b100010 1
b11001001101101 !
b11001001101101 -
1#
#370000
0#
#375000
b11010101001101 '
b11010101001101 2
b100011 ,
b100011 1
b11001111011110 !
b11001111011110 -
b100100 &
b100100 0
1#
#380000
0#
#385000
b100101 &
b100101 0
b11011010111001 '
b11011010111001 2
b100100 ,
b100100 1
b11010101001101 !
b11010101001101 -
1#
#390000
0#
#395000
b11100000100100 '
b11100000100100 2
b100101 ,
b100101 1
b11011010111001 !
b11011010111001 -
b100110 &
b100110 0
1#
#400000
0#
#405000
b100111 &
b100111 0
b11100110001100 '
b11100110001100 2
b100110 ,
b100110 1
b11100000100100 !
b11100000100100 -
1#
#410000
0#
#415000
b11101011110010 '
b11101011110010 2
b100111 ,
b100111 1
b11100110001100 !
b11100110001100 -
b101000 &
b101000 0
1#
#420000
0#
#425000
b101001 &
b101001 0
b11110001010110 '
b11110001010110 2
b101000 ,
b101000 1
b11101011110010 !
b11101011110010 -
1#
#430000
0#
#435000
b11110110110111 '
b11110110110111 2
b101001 ,
b101001 1
b11110001010110 !
b11110001010110 -
b101010 &
b101010 0
1#
#440000
0#
#445000
b101011 &
b101011 0
b11111100010110 '
b11111100010110 2
b101010 ,
b101010 1
b11110110110111 !
b11110110110111 -
1#
#450000
0#
#455000
b100000001110011 '
b100000001110011 2
b101011 ,
b101011 1
b11111100010110 !
b11111100010110 -
b101100 &
b101100 0
1#
#460000
0#
#465000
b101101 &
b101101 0
b100000111001101 '
b100000111001101 2
b101100 ,
b101100 1
b100000001110011 !
b100000001110011 -
1#
#470000
0#
#475000
b100001100100101 '
b100001100100101 2
b101101 ,
b101101 1
b100000111001101 !
b100000111001101 -
b101110 &
b101110 0
1#
#480000
0#
#485000
b101111 &
b101111 0
b100010001111010 '
b100010001111010 2
b101110 ,
b101110 1
b100001100100101 !
b100001100100101 -
1#
#490000
0#
#495000
b100010111001100 '
b100010111001100 2
b101111 ,
b101111 1
b100010001111010 !
b100010001111010 -
b110000 &
b110000 0
1#
#500000
0#
#505000
b110001 &
b110001 0
b100011100011100 '
b100011100011100 2
b110000 ,
b110000 1
b100010111001100 !
b100010111001100 -
1#
#510000
0#
#515000
b100100001101001 '
b100100001101001 2
b110001 ,
b110001 1
b100011100011100 !
b100011100011100 -
b110010 &
b110010 0
1#
#520000
0#
#525000
b110011 &
b110011 0
b100100110110011 '
b100100110110011 2
b110010 ,
b110010 1
b100100001101001 !
b100100001101001 -
1#
#530000
0#
#535000
b100101011111010 '
b100101011111010 2
b110011 ,
b110011 1
b100100110110011 !
b100100110110011 -
b110100 &
b110100 0
1#
#540000
0#
#545000
b110101 &
b110101 0
b100110000111111 '
b100110000111111 2
b110100 ,
b110100 1
b100101011111010 !
b100101011111010 -
1#
#550000
0#
#555000
b100110110000000 '
b100110110000000 2
b110101 ,
b110101 1
b100110000111111 !
b100110000111111 -
b110110 &
b110110 0
1#
#560000
0#
#565000
b110111 &
b110111 0
b100111010111111 '
b100111010111111 2
b110110 ,
b110110 1
b100110110000000 !
b100110110000000 -
1#
#570000
0#
#575000
b100111111111010 '
b100111111111010 2
b110111 ,
b110111 1
b100111010111111 !
b100111010111111 -
b111000 &
b111000 0
1#
#580000
0#
#585000
b111001 &
b111001 0
b101000100110011 '
b101000100110011 2
b111000 ,
b111000 1
b100111111111010 !
b100111111111010 -
1#
#590000
0#
#595000
b101001001101000 '
b101001001101000 2
b111001 ,
b111001 1
b101000100110011 !
b101000100110011 -
b111010 &
b111010 0
1#
#600000
0#
#605000
b111011 &
b111011 0
b101001110011010 '
b101001110011010 2
b111010 ,
b111010 1
b101001001101000 !
b101001001101000 -
1#
#610000
0#
#615000
b101010011001001 '
b101010011001001 2
b111011 ,
b111011 1
b101001110011010 !
b101001110011010 -
b111100 &
b111100 0
1#
#620000
0#
#625000
b111101 &
b111101 0
b101010111110100 '
b101010111110100 2
b111100 ,
b111100 1
b101010011001001 !
b101010011001001 -
1#
#630000
0#
#635000
b101011100011101 '
b101011100011101 2
b111101 ,
b111101 1
b101010111110100 !
b101010111110100 -
b111110 &
b111110 0
1#
#640000
0#
#645000
b111111 &
b111111 0
b101100001000010 '
b101100001000010 2
b111110 ,
b111110 1
b101011100011101 !
b101011100011101 -
1#
#650000
0#
#655000
b101100101100011 '
b101100101100011 2
b111111 ,
b111111 1
b101100001000010 !
b101100001000010 -
1%
b0 &
b0 0
1#
#660000
0#
#665000
0%
b1 &
b1 0
b101101010000001 '
b101101010000001 2
b1000000 ,
b1000000 1
b101100101100011 !
b101100101100011 -
b1 .
1#
#670000
0#
#675000
b101100101100011 '
b101100101100011 2
b111111 ,
b111111 1
b101101010000001 !
b101101010000001 -
b10 &
b10 0
1#
#680000
0#
#685000
b11 &
b11 0
b101100001000010 '
b101100001000010 2
b111110 ,
b111110 1
b101100101100011 !
b101100101100011 -
1#
#690000
0#
#695000
b101011100011101 '
b101011100011101 2
b111101 ,
b111101 1
b101100001000010 !
b101100001000010 -
b100 &
b100 0
1#
#700000
0#
#705000
b101 &
b101 0
b101010111110100 '
b101010111110100 2
b111100 ,
b111100 1
b101011100011101 !
b101011100011101 -
1#
#710000
0#
#715000
b101010011001001 '
b101010011001001 2
b111011 ,
b111011 1
b101010111110100 !
b101010111110100 -
b110 &
b110 0
1#
#720000
0#
#725000
b111 &
b111 0
b101001110011010 '
b101001110011010 2
b111010 ,
b111010 1
b101010011001001 !
b101010011001001 -
1#
#730000
0#
#735000
b101001001101000 '
b101001001101000 2
b111001 ,
b111001 1
b101001110011010 !
b101001110011010 -
b1000 &
b1000 0
1#
#740000
0#
#745000
b1001 &
b1001 0
b101000100110011 '
b101000100110011 2
b111000 ,
b111000 1
b101001001101000 !
b101001001101000 -
1#
#750000
0#
#755000
b100111111111010 '
b100111111111010 2
b110111 ,
b110111 1
b101000100110011 !
b101000100110011 -
b1010 &
b1010 0
1#
#760000
0#
#765000
b1011 &
b1011 0
b100111010111111 '
b100111010111111 2
b110110 ,
b110110 1
b100111111111010 !
b100111111111010 -
1#
#770000
0#
#775000
b100110110000000 '
b100110110000000 2
b110101 ,
b110101 1
b100111010111111 !
b100111010111111 -
b1100 &
b1100 0
1#
#780000
0#
#785000
b1101 &
b1101 0
b100110000111111 '
b100110000111111 2
b110100 ,
b110100 1
b100110110000000 !
b100110110000000 -
1#
#790000
0#
#795000
b100101011111010 '
b100101011111010 2
b110011 ,
b110011 1
b100110000111111 !
b100110000111111 -
b1110 &
b1110 0
1#
#800000
0#
#805000
b1111 &
b1111 0
b100100110110011 '
b100100110110011 2
b110010 ,
b110010 1
b100101011111010 !
b100101011111010 -
1#
#810000
0#
#815000
b100100001101001 '
b100100001101001 2
b110001 ,
b110001 1
b100100110110011 !
b100100110110011 -
b10000 &
b10000 0
1#
#820000
0#
#825000
b10001 &
b10001 0
b100011100011100 '
b100011100011100 2
b110000 ,
b110000 1
b100100001101001 !
b100100001101001 -
1#
#830000
0#
#835000
b100010111001100 '
b100010111001100 2
b101111 ,
b101111 1
b100011100011100 !
b100011100011100 -
b10010 &
b10010 0
1#
#840000
0#
#845000
b10011 &
b10011 0
b100010001111010 '
b100010001111010 2
b101110 ,
b101110 1
b100010111001100 !
b100010111001100 -
1#
#850000
0#
#855000
b100001100100101 '
b100001100100101 2
b101101 ,
b101101 1
b100010001111010 !
b100010001111010 -
b10100 &
b10100 0
1#
#860000
0#
#865000
b10101 &
b10101 0
b100000111001101 '
b100000111001101 2
b101100 ,
b101100 1
b100001100100101 !
b100001100100101 -
1#
#870000
0#
#875000
b100000001110011 '
b100000001110011 2
b101011 ,
b101011 1
b100000111001101 !
b100000111001101 -
b10110 &
b10110 0
1#
#880000
0#
#885000
b10111 &
b10111 0
b11111100010110 '
b11111100010110 2
b101010 ,
b101010 1
b100000001110011 !
b100000001110011 -
1#
#890000
0#
#895000
b11110110110111 '
b11110110110111 2
b101001 ,
b101001 1
b11111100010110 !
b11111100010110 -
b11000 &
b11000 0
1#
#900000
0#
#905000
b11001 &
b11001 0
b11110001010110 '
b11110001010110 2
b101000 ,
b101000 1
b11110110110111 !
b11110110110111 -
1#
#910000
0#
#915000
b11101011110010 '
b11101011110010 2
b100111 ,
b100111 1
b11110001010110 !
b11110001010110 -
b11010 &
b11010 0
1#
#920000
0#
#925000
b11011 &
b11011 0
b11100110001100 '
b11100110001100 2
b100110 ,
b100110 1
b11101011110010 !
b11101011110010 -
1#
#930000
0#
#935000
b11100000100100 '
b11100000100100 2
b100101 ,
b100101 1
b11100110001100 !
b11100110001100 -
b11100 &
b11100 0
1#
#940000
0#
#945000
b11101 &
b11101 0
b11011010111001 '
b11011010111001 2
b100100 ,
b100100 1
b11100000100100 !
b11100000100100 -
1#
#950000
0#
#955000
b11010101001101 '
b11010101001101 2
b100011 ,
b100011 1
b11011010111001 !
b11011010111001 -
b11110 &
b11110 0
1#
#960000
0#
#965000
b11111 &
b11111 0
b11001111011110 '
b11001111011110 2
b100010 ,
b100010 1
b11010101001101 !
b11010101001101 -
1#
#970000
0#
#975000
b11001001101101 '
b11001001101101 2
b100001 ,
b100001 1
b11001111011110 !
b11001111011110 -
b100000 &
b100000 0
1#
#980000
0#
#985000
b100001 &
b100001 0
b11000011111011 '
b11000011111011 2
b100000 ,
b100000 1
b11001001101101 !
b11001001101101 -
1#
#990000
0#
#995000
b10111110000110 '
b10111110000110 2
b11111 ,
b11111 1
b11000011111011 !
b11000011111011 -
b100010 &
b100010 0
1#
#1000000
0#
#1005000
b100011 &
b100011 0
b10111000010000 '
b10111000010000 2
b11110 ,
b11110 1
b10111110000110 !
b10111110000110 -
1#
#1010000
0#
#1015000
b10110010011000 '
b10110010011000 2
b11101 ,
b11101 1
b10111000010000 !
b10111000010000 -
b100100 &
b100100 0
1#
#1020000
0#
#1025000
b100101 &
b100101 0
b10101100011110 '
b10101100011110 2
b11100 ,
b11100 1
b10110010011000 !
b10110010011000 -
1#
#1030000
0#
#1035000
b10100110100011 '
b10100110100011 2
b11011 ,
b11011 1
b10101100011110 !
b10101100011110 -
b100110 &
b100110 0
1#
#1040000
0#
#1045000
b100111 &
b100111 0
b10100000100110 '
b10100000100110 2
b11010 ,
b11010 1
b10100110100011 !
b10100110100011 -
1#
#1050000
0#
#1055000
b10011010100111 '
b10011010100111 2
b11001 ,
b11001 1
b10100000100110 !
b10100000100110 -
b101000 &
b101000 0
1#
#1060000
0#
#1065000
b101001 &
b101001 0
b10010100100111 '
b10010100100111 2
b11000 ,
b11000 1
b10011010100111 !
b10011010100111 -
1#
#1070000
0#
#1075000
b10001110100110 '
b10001110100110 2
b10111 ,
b10111 1
b10010100100111 !
b10010100100111 -
b101010 &
b101010 0
1#
#1080000
0#
#1085000
b101011 &
b101011 0
b10001000100011 '
b10001000100011 2
b10110 ,
b10110 1
b10001110100110 !
b10001110100110 -
1#
#1090000
0#
#1095000
b10000010011111 '
b10000010011111 2
b10101 ,
b10101 1
b10001000100011 !
b10001000100011 -
b101100 &
b101100 0
1#
#1100000
0#
#1105000
b101101 &
b101101 0
b1111100011001 '
b1111100011001 2
b10100 ,
b10100 1
b10000010011111 !
b10000010011111 -
1#
#1110000
0#
#1115000
b1110110010011 '
b1110110010011 2
b10011 ,
b10011 1
b1111100011001 !
b1111100011001 -
b101110 &
b101110 0
1#
#1120000
0#
#1125000
b101111 &
b101111 0
b1110000001011 '
b1110000001011 2
b10010 ,
b10010 1
b1110110010011 !
b1110110010011 -
1#
#1130000
0#
#1135000
b1101010000010 '
b1101010000010 2
b10001 ,
b10001 1
b1110000001011 !
b1110000001011 -
b110000 &
b110000 0
1#
#1140000
0#
#1145000
b110001 &
b110001 0
b1100011111000 '
b1100011111000 2
b10000 ,
b10000 1
b1101010000010 !
b1101010000010 -
1#
#1150000
0#
#1155000
b1011101101101 '
b1011101101101 2
b1111 ,
b1111 1
b1100011111000 !
b1100011111000 -
b110010 &
b110010 0
1#
#1160000
0#
#1165000
b110011 &
b110011 0
b1010111100001 '
b1010111100001 2
b1110 ,
b1110 1
b1011101101101 !
b1011101101101 -
1#
#1170000
0#
#1175000
b1010001010101 '
b1010001010101 2
b1101 ,
b1101 1
b1010111100001 !
b1010111100001 -
b110100 &
b110100 0
1#
#1180000
0#
#1185000
b110101 &
b110101 0
b1001011000111 '
b1001011000111 2
b1100 ,
b1100 1
b1010001010101 !
b1010001010101 -
1#
#1190000
0#
#1195000
b1000100111001 '
b1000100111001 2
b1011 ,
b1011 1
b1001011000111 !
b1001011000111 -
b110110 &
b110110 0
1#
#1200000
0#
#1205000
b110111 &
b110111 0
b111110101011 '
b111110101011 2
b1010 ,
b1010 1
b1000100111001 !
b1000100111001 -
1#
#1210000
0#
#1215000
b111000011011 '
b111000011011 2
b1001 ,
b1001 1
b111110101011 !
b111110101011 -
b111000 &
b111000 0
1#
#1220000
0#
#1225000
b111001 &
b111001 0
b110010001011 '
b110010001011 2
b1000 ,
b1000 1
b111000011011 !
b111000011011 -
1#
#1230000
0#
#1235000
b101011111011 '
b101011111011 2
b111 ,
b111 1
b110010001011 !
b110010001011 -
b111010 &
b111010 0
1#
#1240000
0#
#1245000
b111011 &
b111011 0
b100101101010 '
b100101101010 2
b110 ,
b110 1
b101011111011 !
b101011111011 -
1#
#1250000
0#
#1255000
b11111011001 '
b11111011001 2
b101 ,
b101 1
b100101101010 !
b100101101010 -
b111100 &
b111100 0
1#
#1260000
0#
#1265000
b111101 &
b111101 0
b11001000111 '
b11001000111 2
b100 ,
b100 1
b11111011001 !
b11111011001 -
1#
#1270000
0#
#1275000
b10010110110 '
b10010110110 2
b11 ,
b11 1
b11001000111 !
b11001000111 -
b111110 &
b111110 0
1#
#1280000
0#
#1285000
b111111 &
b111111 0
b1100100100 '
b1100100100 2
b10 ,
b10 1
b10010110110 !
b10010110110 -
1#
#1290000
0#
#1295000
b110010010 '
b110010010 2
b1 ,
b1 1
b1100100100 !
b1100100100 -
1%
b0 &
b0 0
1#
#1300000
0#
#1305000
0%
b1 &
b1 0
b0 '
b0 2
b0 ,
b0 1
b110010010 !
b110010010 -
b10 .
1#
#1310000
0#
#1315000
b110010010 '
b110010010 2
b1 ,
b1 1
b0 !
b0 -
b10 &
b10 0
1#
#1320000
0#
#1325000
b11 &
b11 0
b1100100100 '
b1100100100 2
b10 ,
b10 1
b1111111001101110 !
b1111111001101110 -
1#
#1330000
0#
#1335000
b10010110110 '
b10010110110 2
b11 ,
b11 1
b1111110011011100 !
b1111110011011100 -
b100 &
b100 0
1#
#1340000
0#
#1345000
b101 &
b101 0
b11001000111 '
b11001000111 2
b100 ,
b100 1
b1111101101001010 !
b1111101101001010 -
1#
#1350000
0#
#1355000
b11111011001 '
b11111011001 2
b101 ,
b101 1
b1111100110111001 !
b1111100110111001 -
b110 &
b110 0
1#
#1360000
0#
#1365000
b111 &
b111 0
b100101101010 '
b100101101010 2
b110 ,
b110 1
b1111100000100111 !
b1111100000100111 -
1#
#1370000
0#
#1375000
b101011111011 '
b101011111011 2
b111 ,
b111 1
b1111011010010110 !
b1111011010010110 -
b1000 &
b1000 0
1#
#1380000
0#
#1385000
b1001 &
b1001 0
b110010001011 '
b110010001011 2
b1000 ,
b1000 1
b1111010100000101 !
b1111010100000101 -
1#
#1390000
0#
#1395000
b111000011011 '
b111000011011 2
b1001 ,
b1001 1
b1111001101110101 !
b1111001101110101 -
b1010 &
b1010 0
1#
#1400000
0#
#1405000
b1011 &
b1011 0
b111110101011 '
b111110101011 2
b1010 ,
b1010 1
b1111000111100101 !
b1111000111100101 -
1#
#1410000
0#
#1415000
b1000100111001 '
b1000100111001 2
b1011 ,
b1011 1
b1111000001010101 !
b1111000001010101 -
b1100 &
b1100 0
1#
#1420000
0#
#1425000
b1101 &
b1101 0
b1001011000111 '
b1001011000111 2
b1100 ,
b1100 1
b1110111011000111 !
b1110111011000111 -
1#
#1430000
0#
#1435000
b1010001010101 '
b1010001010101 2
b1101 ,
b1101 1
b1110110100111001 !
b1110110100111001 -
b1110 &
b1110 0
1#
#1440000
0#
#1445000
b1111 &
b1111 0
b1010111100001 '
b1010111100001 2
b1110 ,
b1110 1
b1110101110101011 !
b1110101110101011 -
1#
#1450000
0#
#1455000
b1011101101101 '
b1011101101101 2
b1111 ,
b1111 1
b1110101000011111 !
b1110101000011111 -
b10000 &
b10000 0
1#
#1460000
0#
#1465000
b10001 &
b10001 0
b1100011111000 '
b1100011111000 2
b10000 ,
b10000 1
b1110100010010011 !
b1110100010010011 -
1#
#1470000
0#
#1475000
b1101010000010 '
b1101010000010 2
b10001 ,
b10001 1
b1110011100001000 !
b1110011100001000 -
b10010 &
b10010 0
1#
#1480000
0#
#1485000
b10011 &
b10011 0
b1110000001011 '
b1110000001011 2
b10010 ,
b10010 1
b1110010101111110 !
b1110010101111110 -
1#
#1490000
0#
#1495000
b1110110010011 '
b1110110010011 2
b10011 ,
b10011 1
b1110001111110101 !
b1110001111110101 -
b10100 &
b10100 0
1#
#1500000
0#
#1505000
b10101 &
b10101 0
b1111100011001 '
b1111100011001 2
b10100 ,
b10100 1
b1110001001101101 !
b1110001001101101 -
1#
#1510000
0#
#1515000
b10000010011111 '
b10000010011111 2
b10101 ,
b10101 1
b1110000011100111 !
b1110000011100111 -
b10110 &
b10110 0
1#
#1520000
0#
#1525000
b10111 &
b10111 0
b10001000100011 '
b10001000100011 2
b10110 ,
b10110 1
b1101111101100001 !
b1101111101100001 -
1#
#1530000
0#
#1535000
b10001110100110 '
b10001110100110 2
b10111 ,
b10111 1
b1101110111011101 !
b1101110111011101 -
b11000 &
b11000 0
1#
#1540000
0#
#1545000
b11001 &
b11001 0
b10010100100111 '
b10010100100111 2
b11000 ,
b11000 1
b1101110001011010 !
b1101110001011010 -
1#
#1550000
0#
#1555000
b10011010100111 '
b10011010100111 2
b11001 ,
b11001 1
b1101101011011001 !
b1101101011011001 -
b11010 &
b11010 0
1#
#1560000
0#
#1565000
b11011 &
b11011 0
b10100000100110 '
b10100000100110 2
b11010 ,
b11010 1
b1101100101011001 !
b1101100101011001 -
1#
#1570000
0#
#1575000
b10100110100011 '
b10100110100011 2
b11011 ,
b11011 1
b1101011111011010 !
b1101011111011010 -
b11100 &
b11100 0
1#
#1580000
0#
#1585000
b11101 &
b11101 0
b10101100011110 '
b10101100011110 2
b11100 ,
b11100 1
b1101011001011101 !
b1101011001011101 -
1#
#1590000
0#
#1595000
b10110010011000 '
b10110010011000 2
b11101 ,
b11101 1
b1101010011100010 !
b1101010011100010 -
b11110 &
b11110 0
1#
#1600000
0#
#1605000
b11111 &
b11111 0
b10111000010000 '
b10111000010000 2
b11110 ,
b11110 1
b1101001101101000 !
b1101001101101000 -
1#
#1610000
0#
#1615000
b10111110000110 '
b10111110000110 2
b11111 ,
b11111 1
b1101000111110000 !
b1101000111110000 -
b100000 &
b100000 0
1#
#1620000
0#
#1625000
b100001 &
b100001 0
b11000011111011 '
b11000011111011 2
b100000 ,
b100000 1
b1101000001111010 !
b1101000001111010 -
1#
#1630000
0#
#1635000
b11001001101101 '
b11001001101101 2
b100001 ,
b100001 1
b1100111100000101 !
b1100111100000101 -
b100010 &
b100010 0
1#
#1640000
0#
#1645000
b100011 &
b100011 0
b11001111011110 '
b11001111011110 2
b100010 ,
b100010 1
b1100110110010011 !
b1100110110010011 -
1#
#1650000
0#
#1655000
b11010101001101 '
b11010101001101 2
b100011 ,
b100011 1
b1100110000100010 !
b1100110000100010 -
b100100 &
b100100 0
1#
#1660000
0#
#1665000
b100101 &
b100101 0
b11011010111001 '
b11011010111001 2
b100100 ,
b100100 1
b1100101010110011 !
b1100101010110011 -
1#
#1670000
0#
#1675000
b11100000100100 '
b11100000100100 2
b100101 ,
b100101 1
b1100100101000111 !
b1100100101000111 -
b100110 &
b100110 0
1#
#1680000
0#
#1685000
b100111 &
b100111 0
b11100110001100 '
b11100110001100 2
b100110 ,
b100110 1
b1100011111011100 !
b1100011111011100 -
1#
#1690000
0#
#1695000
b11101011110010 '
b11101011110010 2
b100111 ,
b100111 1
b1100011001110100 !
b1100011001110100 -
b101000 &
b101000 0
1#
#1700000
0#
#1705000
b101001 &
b101001 0
b11110001010110 '
b11110001010110 2
b101000 ,
b101000 1
b1100010100001110 !
b1100010100001110 -
1#
#1710000
0#
#1715000
b11110110110111 '
b11110110110111 2
b101001 ,
b101001 1
b1100001110101010 !
b1100001110101010 -
b101010 &
b101010 0
1#
#1720000
0#
#1725000
b101011 &
b101011 0
b11111100010110 '
b11111100010110 2
b101010 ,
b101010 1
b1100001001001001 !
b1100001001001001 -
1#
#1730000
0#
#1735000
b100000001110011 '
b100000001110011 2
b101011 ,
b101011 1
b1100000011101010 !
b1100000011101010 -
b101100 &
b101100 0
1#
#1740000
0#
#1745000
b101101 &
b101101 0
b100000111001101 '
b100000111001101 2
b101100 ,
b101100 1
b1011111110001101 !
b1011111110001101 -
1#
#1750000
0#
#1755000
b100001100100101 '
b100001100100101 2
b101101 ,
b101101 1
b1011111000110011 !
b1011111000110011 -
b101110 &
b101110 0
1#
#1760000
0#
#1765000
b101111 &
b101111 0
b100010001111010 '
b100010001111010 2
b101110 ,
b101110 1
b1011110011011011 !
b1011110011011011 -
1#
#1770000
0#
#1775000
b100010111001100 '
b100010111001100 2
b101111 ,
b101111 1
b1011101110000110 !
b1011101110000110 -
b110000 &
b110000 0
1#
#1780000
0#
#1785000
b110001 &
b110001 0
b100011100011100 '
b100011100011100 2
b110000 ,
b110000 1
b1011101000110100 !
b1011101000110100 -
1#
#1790000
0#
#1795000
b100100001101001 '
b100100001101001 2
b110001 ,
b110001 1
b1011100011100100 !
b1011100011100100 -
b110010 &
b110010 0
1#
#1800000
0#
#1805000
b110011 &
b110011 0
b100100110110011 '
b100100110110011 2
b110010 ,
b110010 1
b1011011110010111 !
b1011011110010111 -
1#
#1810000
0#
#1815000
b100101011111010 '
b100101011111010 2
b110011 ,
b110011 1
b1011011001001101 !
b1011011001001101 -
b110100 &
b110100 0
1#
#1820000
0#
#1825000
b110101 &
b110101 0
b100110000111111 '
b100110000111111 2
b110100 ,
b110100 1
b1011010100000110 !
b1011010100000110 -
1#
#1830000
0#
#1835000
b100110110000000 '
b100110110000000 2
b110101 ,
b110101 1
b1011001111000001 !
b1011001111000001 -
b110110 &
b110110 0
1#
#1840000
0#
#1845000
b110111 &
b110111 0
b100111010111111 '
b100111010111111 2
b110110 ,
b110110 1
b1011001010000000 !
b1011001010000000 -
1#
#1850000
0#
#1855000
b100111111111010 '
b100111111111010 2
b110111 ,
b110111 1
b1011000101000001 !
b1011000101000001 -
b111000 &
b111000 0
1#
#1860000
0#
#1865000
b111001 &
b111001 0
b101000100110011 '
b101000100110011 2
b111000 ,
b111000 1
b1011000000000110 !
b1011000000000110 -
1#
#1870000
0#
#1875000
b101001001101000 '
b101001001101000 2
b111001 ,
b111001 1
b1010111011001101 !
b1010111011001101 -
b111010 &
b111010 0
1#
#1880000
0#
#1885000
b111011 &
b111011 0
b101001110011010 '
b101001110011010 2
b111010 ,
b111010 1
b1010110110011000 !
b1010110110011000 -
1#
#1890000
0#
#1895000
b101010011001001 '
b101010011001001 2
b111011 ,
b111011 1
b1010110001100110 !
b1010110001100110 -
b111100 &
b111100 0
1#
#1900000
0#
