simulation/vcd/ConvEncode.vcd
$date
	Fri May 24 21:57:09 2024
$end
$version
	Icarus Verilog
$end
$timescale
	1ps
$end
$scope module ConvEncode_tb $end
$var wire 1 ! q_sig $end
$var wire 1 " encode_sig $end
$var wire 2 # encode_reg [1:0] $end
$var parameter 32 $ M $end
$var parameter 32 % PERIOD $end
$var reg 1 & clk_sig $end
$var reg 1 ' double_clk_sig $end
$var reg 1 ( en_sig $end
$var reg 1 ) rst_sig $end
$scope module u_ConvEncode $end
$var wire 1 & clk_sig $end
$var wire 1 ( en_p $end
$var wire 1 ) rst_n $end
$var wire 1 ! q_sig $end
$var wire 2 * encode_sig [1:0] $end
$var reg 4 + encoder_reg [3:0] $end
$upscope $end
$scope module u_mseries $end
$var wire 1 & clk_sig $end
$var wire 1 ) rst_sig $end
$var wire 1 ! m_sig $end
$var parameter 32 , M $end
$var reg 4 - m_r [3:0] $end
$upscope $end
$scope module u_parallel2serial $end
$var wire 1 ' clk_sig $end
$var wire 2 . parallel_sig [1:0] $end
$var wire 1 ) reset_sig $end
$var wire 1 " serial_sig $end
$var wire 2 / counter_sig [-1:0] $end
$var parameter 32 0 WIDTH $end
$var reg 2 1 parallel_r [0:1] $end
$scope module counter_inst $end
$var wire 1 ' clk_sig $end
$var wire 1 ) reset_sig $end
$var parameter 32 2 NUM $end
$var reg 1 3 carry_sig $end
$var reg 2 4 counter_sig [-1:0] $end
$upscope $end
$upscope $end
$upscope $end
$enddefinitions $end
$comment Show the parameter values. $end
$dumpall
b10 2
b10 0
b100 ,
b1010 %
b100 $
$end
#0
$dumpvars
b0 4
x3
bx 1
b0 /
bx .
b1111 -
bx +
bx *
0)
0(
0'
0&
bx #
x"
1!
$end
#5000
0"
03
b0 1
1'
#10000
b0 #
b0 *
b0 .
b0 +
0'
1&
#15000
1'
#20000
0'
0&
1(
1)
#25000
b1 /
b1 4
1'
#30000
b11 #
b11 *
b11 .
b1000 +
b1110 -
0'
1&
#35000
13
b0 /
b0 4
1'
#40000
0'
0&
#45000
1"
03
b1 /
b1 4
b11 1
1'
#50000
b10 #
b10 *
b10 .
b1100 -
b1100 +
0'
1&
#55000
13
b0 /
b0 4
1'
#60000
0'
0&
#65000
03
b1 /
b1 4
b10 1
1'
#70000
b1 #
b1 *
b1 .
b1110 +
b1000 -
0'
1&
#75000
0"
b1 1
13
b0 /
b0 4
1'
#80000
0'
0&
#85000
03
b1 /
b1 4
1'
#90000
b10 #
b10 *
b10 .
0!
b1 -
b1111 +
0'
1&
#95000
1"
b10 1
13
b0 /
b0 4
1'
#100000
0'
0&
#105000
03
b1 /
b1 4
1'
#110000
b1 #
b1 *
b1 .
b111 +
b10 -
0'
1&
#115000
0"
b1 1
13
b0 /
b0 4
1'
#120000
0'
0&
#125000
03
b1 /
b1 4
1'
#130000
b0 #
b0 *
b0 .
b100 -
b11 +
0'
1&
#135000
1"
b10 1
13
b0 /
b0 4
1'
#140000
0'
0&
#145000
0"
03
b1 /
b1 4
b0 1
1'
#150000
b11 #
b11 *
b11 .
1!
b1 +
b1001 -
0'
1&
#155000
13
b0 /
b0 4
1'
#160000
0'
0&
#165000
1"
03
b1 /
b1 4
b11 1
1'
#170000
b11 #
b11 *
b11 .
0!
b11 -
b1000 +
0'
1&
#175000
13
b0 /
b0 4
1'
#180000
0'
0&
#185000
03
b1 /
b1 4
1'
#190000
b1 #
b1 *
b1 .
b100 +
b110 -
0'
1&
#195000
13
b0 /
b0 4
1'
#200000
0'
0&
#205000
0"
03
b1 /
b1 4
b1 1
1'
#210000
b11 #
b11 *
b11 .
1!
b1101 -
b10 +
0'
1&
#215000
1"
b10 1
13
b0 /
b0 4
1'
#220000
0'
0&
#225000
03
b1 /
b1 4
b11 1
1'
#230000
b0 #
b0 *
b0 .
b1001 +
b1010 -
0'
1&
#235000
13
b0 /
b0 4
1'
#240000
0'
0&
#245000
0"
03
b1 /
b1 4
b0 1
1'
#250000
b10 #
b10 *
b10 .
0!
b101 -
b1100 +
0'
1&
#255000
13
b0 /
b0 4
1'
#260000
0'
0&
#265000
1"
03
b1 /
b1 4
b10 1
1'
#270000
b10 #
b10 *
b10 .
1!
b110 +
b1011 -
0'
1&
#275000
0"
b1 1
13
b0 /
b0 4
1'
#280000
0'
0&
#285000
1"
03
b1 /
b1 4
b10 1
1'
#290000
b11 #
b11 *
b11 .
0!
b111 -
b1011 +
0'
1&
#295000
0"
b1 1
13
b0 /
b0 4
1'
#300000
0'
0&
#305000
1"
03
b1 /
b1 4
b11 1
1'
#310000
b10 #
b10 *
b10 .
1!
b101 +
b1111 -
0'
1&
#315000
13
b0 /
b0 4
1'
#320000
0'
0&
#325000
03
b1 /
b1 4
b10 1
1'
#330000
b0 #
b0 *
b0 .
b1110 -
b1010 +
0'
1&
#335000
0"
b1 1
13
b0 /
b0 4
1'
#340000
0'
0&
#345000
03
b1 /
b1 4
b0 1
1'
#350000
b1 #
b1 *
b1 .
b1101 +
b1100 -
0'
1&
#355000
13
b0 /
b0 4
1'
#360000
0'
0&
#365000
03
b1 /
b1 4
b1 1
1'
#370000
b1 #
b1 *
b1 .
b1000 -
b1110 +
0'
1&
#375000
1"
b10 1
13
b0 /
b0 4
1'
#380000
0'
0&
#385000
0"
03
b1 /
b1 4
b1 1
1'
#390000
b10 #
b10 *
b10 .
0!
b1111 +
b1 -
0'
1&
#395000
1"
b10 1
13
b0 /
b0 4
1'
#400000
0'
0&
#405000
03
b1 /
b1 4
1'
#410000
b1 #
b1 *
b1 .
b10 -
b111 +
0'
1&
#415000
0"
b1 1
13
b0 /
b0 4
1'
#420000
0'
0&
#425000
03
b1 /
b1 4
1'
#430000
b0 #
b0 *
b0 .
b11 +
b100 -
0'
1&
#435000
1"
b10 1
13
b0 /
b0 4
1'
#440000
0'
0&
#445000
0"
03
b1 /
b1 4
b0 1
1'
#450000
b11 #
b11 *
b11 .
1!
b1001 -
b1 +
0'
1&
#455000
13
b0 /
b0 4
1'
#460000
0'
0&
#465000
1"
03
b1 /
b1 4
b11 1
1'
#470000
b11 #
b11 *
b11 .
0!
b1000 +
b11 -
0'
1&
#475000
13
b0 /
b0 4
1'
#480000
0'
0&
#485000
03
b1 /
b1 4
1'
#490000
b1 #
b1 *
b1 .
b110 -
b100 +
0'
1&
#495000
13
b0 /
b0 4
1'
#500000
0'
0&
#505000
0"
03
b1 /
b1 4
b1 1
1'
#510000
b11 #
b11 *
b11 .
1!
b10 +
b1101 -
0'
1&
#515000
1"
b10 1
13
b0 /
b0 4
1'
#520000
0'
0&
#525000
03
b1 /
b1 4
b11 1
1'
#530000
b0 #
b0 *
b0 .
b1010 -
b1001 +
0'
1&
#535000
13
b0 /
b0 4
1'
#540000
0'
0&
#545000
0"
03
b1 /
b1 4
b0 1
1'
#550000
b10 #
b10 *
b10 .
0!
b1100 +
b101 -
0'
1&
#555000
13
b0 /
b0 4
1'
#560000
0'
0&
#565000
1"
03
b1 /
b1 4
b10 1
1'
#570000
b10 #
b10 *
b10 .
1!
b1011 -
b110 +
0'
1&
#575000
0"
b1 1
13
b0 /
b0 4
1'
#580000
0'
0&
#585000
1"
03
b1 /
b1 4
b10 1
1'
#590000
b11 #
b11 *
b11 .
0!
b1011 +
b111 -
0'
1&
#595000
0"
b1 1
13
b0 /
b0 4
1'
#600000
0'
0&
#605000
1"
03
b1 /
b1 4
b11 1
1'
#610000
b10 #
b10 *
b10 .
1!
b1111 -
b101 +
0'
1&
#615000
13
b0 /
b0 4
1'
#620000
0'
0&
#625000
03
b1 /
b1 4
b10 1
1'
#630000
b0 #
b0 *
b0 .
b1010 +
b1110 -
0'
1&
#635000
0"
b1 1
13
b0 /
b0 4
1'
#640000
0'
0&
#645000
03
b1 /
b1 4
b0 1
1'
#650000
b1 #
b1 *
b1 .
b1100 -
b1101 +
0'
1&
#655000
13
b0 /
b0 4
1'
#660000
0'
0&
#665000
03
b1 /
b1 4
b1 1
1'
#670000
b1 #
b1 *
b1 .
b1110 +
b1000 -
0'
1&
#675000
1"
b10 1
13
b0 /
b0 4
1'
#680000
0'
0&
#685000
0"
03
b1 /
b1 4
b1 1
1'
#690000
b10 #
b10 *
b10 .
0!
b1 -
b1111 +
0'
1&
#695000
1"
b10 1
13
b0 /
b0 4
1'
#700000
0'
0&
#705000
03
b1 /
b1 4
1'
#710000
b1 #
b1 *
b1 .
b111 +
b10 -
0'
1&
#715000
0"
b1 1
13
b0 /
b0 4
1'
#720000
0'
0&
#725000
03
b1 /
b1 4
1'
#730000
b0 #
b0 *
b0 .
b100 -
b11 +
0'
1&
#735000
1"
b10 1
13
b0 /
b0 4
1'
#740000
0'
0&
#745000
0"
03
b1 /
b1 4
b0 1
1'
#750000
b11 #
b11 *
b11 .
1!
b1 +
b1001 -
0'
1&
#755000
13
b0 /
b0 4
1'
#760000
0'
0&
#765000
1"
03
b1 /
b1 4
b11 1
1'
#770000
b11 #
b11 *
b11 .
0!
b11 -
b1000 +
0'
1&
#775000
13
b0 /
b0 4
1'
#780000
0'
0&
#785000
03
b1 /
b1 4
1'
#790000
b1 #
b1 *
b1 .
b100 +
b110 -
0'
1&
#795000
13
b0 /
b0 4
1'
#800000
0'
0&
#805000
0"
03
b1 /
b1 4
b1 1
1'
#810000
b11 #
b11 *
b11 .
1!
b1101 -
b10 +
0'
1&
#815000
1"
b10 1
13
b0 /
b0 4
1'
#820000
0'
0&
#825000
03
b1 /
b1 4
b11 1
1'
#830000
b0 #
b0 *
b0 .
b1001 +
b1010 -
0'
1&
#835000
13
b0 /
b0 4
1'
#840000
0'
0&
#845000
0"
03
b1 /
b1 4
b0 1
1'
#850000
b10 #
b10 *
b10 .
0!
b101 -
b1100 +
0'
1&
#855000
13
b0 /
b0 4
1'
#860000
0'
0&
#865000
1"
03
b1 /
b1 4
b10 1
1'
#870000
b10 #
b10 *
b10 .
1!
b110 +
b1011 -
0'
1&
#875000
0"
b1 1
13
b0 /
b0 4
1'
#880000
0'
0&
#885000
1"
03
b1 /
b1 4
b10 1
1'
#890000
b11 #
b11 *
b11 .
0!
b111 -
b1011 +
0'
1&
#895000
0"
b1 1
13
b0 /
b0 4
1'
#900000
0'
0&
#905000
1"
03
b1 /
b1 4
b11 1
1'
#910000
b10 #
b10 *
b10 .
1!
b101 +
b1111 -
0'
1&
#915000
13
b0 /
b0 4
1'
#920000
0'
0&
#925000
03
b1 /
b1 4
b10 1
1'
#930000
b0 #
b0 *
b0 .
b1110 -
b1010 +
0'
1&
#935000
0"
b1 1
13
b0 /
b0 4
1'
#940000
0'
0&
#945000
03
b1 /
b1 4
b0 1
1'
#950000
b1 #
b1 *
b1 .
b1101 +
b1100 -
0'
1&
#955000
13
b0 /
b0 4
1'
#960000
0'
0&
#965000
03
b1 /
b1 4
b1 1
1'
#970000
b1 #
b1 *
b1 .
b1000 -
b1110 +
0'
1&
#975000
1"
b10 1
13
b0 /
b0 4
1'
#980000
0'
0&
#985000
0"
03
b1 /
b1 4
b1 1
1'
#990000
b10 #
b10 *
b10 .
0!
b1111 +
b1 -
0'
1&
#995000
1"
b10 1
13
b0 /
b0 4
1'
#1000000
0'
0&
#1005000
03
b1 /
b1 4
1'
#1010000
b1 #
b1 *
b1 .
b10 -
b111 +
0'
1&
#1015000
0"
b1 1
13
b0 /
b0 4
1'
#1020000
0'
0&
#1025000
03
b1 /
b1 4
1'
#1030000
b0 #
b0 *
b0 .
b11 +
b100 -
0'
1&
#1035000
1"
b10 1
13
b0 /
b0 4
1'
#1040000
0'
0&
#1045000
0"
03
b1 /
b1 4
b0 1
1'
#1050000
b11 #
b11 *
b11 .
1!
b1001 -
b1 +
0'
1&
#1055000
13
b0 /
b0 4
1'
#1060000
0'
0&
#1065000
1"
03
b1 /
b1 4
b11 1
1'
#1070000
b11 #
b11 *
b11 .
0!
b1000 +
b11 -
0'
1&
#1075000
13
b0 /
b0 4
1'
#1080000
0'
0&
#1085000
03
b1 /
b1 4
1'
#1090000
b1 #
b1 *
b1 .
b110 -
b100 +
0'
1&
#1095000
13
b0 /
b0 4
1'
#1100000
0'
0&
#1105000
0"
03
b1 /
b1 4
b1 1
1'
#1110000
b11 #
b11 *
b11 .
1!
b10 +
b1101 -
0'
1&
#1115000
1"
b10 1
13
b0 /
b0 4
1'
#1120000
0'
0&
#1125000
03
b1 /
b1 4
b11 1
1'
#1130000
b0 #
b0 *
b0 .
b1010 -
b1001 +
0'
1&
#1135000
13
b0 /
b0 4
1'
#1140000
0'
0&
#1145000
0"
03
b1 /
b1 4
b0 1
1'
#1150000
b10 #
b10 *
b10 .
0!
b1100 +
b101 -
0'
1&
#1155000
13
b0 /
b0 4
1'
#1160000
0'
0&
#1165000
1"
03
b1 /
b1 4
b10 1
1'
#1170000
b10 #
b10 *
b10 .
1!
b1011 -
b110 +
0'
1&
#1175000
0"
b1 1
13
b0 /
b0 4
1'
#1180000
0'
0&
#1185000
1"
03
b1 /
b1 4
b10 1
1'
#1190000
b11 #
b11 *
b11 .
0!
b1011 +
b111 -
0'
1&
#1195000
0"
b1 1
13
b0 /
b0 4
1'
#1200000
0'
0&
#1205000
1"
03
b1 /
b1 4
b11 1
1'
#1210000
b10 #
b10 *
b10 .
1!
b1111 -
b101 +
0'
1&
#1215000
13
b0 /
b0 4
1'
#1220000
0'
0&
#1225000
03
b1 /
b1 4
b10 1
1'
#1230000
b0 #
b0 *
b0 .
b1010 +
b1110 -
0'
1&
#1235000
0"
b1 1
13
b0 /
b0 4
1'
#1240000
0'
0&
#1245000
03
b1 /
b1 4
b0 1
1'
#1250000
b1 #
b1 *
b1 .
b1100 -
b1101 +
0'
1&
#1255000
13
b0 /
b0 4
1'
#1260000
0'
0&
#1265000
03
b1 /
b1 4
b1 1
1'
#1270000
b1 #
b1 *
b1 .
b1110 +
b1000 -
0'
1&
#1275000
1"
b10 1
13
b0 /
b0 4
1'
#1280000
0'
0&
#1285000
0"
03
b1 /
b1 4
b1 1
1'
#1290000
b10 #
b10 *
b10 .
0!
b1 -
b1111 +
0'
1&
#1295000
1"
b10 1
13
b0 /
b0 4
1'
#1300000
0'
0&
#1305000
03
b1 /
b1 4
1'
#1310000
b1 #
b1 *
b1 .
b111 +
b10 -
0'
1&
#1315000
0"
b1 1
13
b0 /
b0 4
1'
#1320000
0'
0&
#1325000
03
b1 /
b1 4
1'
#1330000
b0 #
b0 *
b0 .
b100 -
b11 +
0'
1&
#1335000
1"
b10 1
13
b0 /
b0 4
1'
#1340000
0'
0&
#1345000
0"
03
b1 /
b1 4
b0 1
1'
#1350000
b11 #
b11 *
b11 .
1!
b1 +
b1001 -
0'
1&
#1355000
13
b0 /
b0 4
1'
#1360000
0'
0&
#1365000
1"
03
b1 /
b1 4
b11 1
1'
#1370000
b11 #
b11 *
b11 .
0!
b11 -
b1000 +
0'
1&
#1375000
13
b0 /
b0 4
1'
#1380000
0'
0&
#1385000
03
b1 /
b1 4
1'
#1390000
b1 #
b1 *
b1 .
b100 +
b110 -
0'
1&
#1395000
13
b0 /
b0 4
1'
#1400000
0'
0&
#1405000
0"
03
b1 /
b1 4
b1 1
1'
#1410000
b11 #
b11 *
b11 .
1!
b1101 -
b10 +
0'
1&
#1415000
1"
b10 1
13
b0 /
b0 4
1'
#1420000
0'
0&
#1425000
03
b1 /
b1 4
b11 1
1'
#1430000
b0 #
b0 *
b0 .
b1001 +
b1010 -
0'
1&
#1435000
13
b0 /
b0 4
1'
#1440000
0'
0&
#1445000
0"
03
b1 /
b1 4
b0 1
1'
#1450000
b10 #
b10 *
b10 .
0!
b101 -
b1100 +
0'
1&
#1455000
13
b0 /
b0 4
1'
#1460000
0'
0&
#1465000
1"
03
b1 /
b1 4
b10 1
1'
#1470000
b10 #
b10 *
b10 .
1!
b110 +
b1011 -
0'
1&
#1475000
0"
b1 1
13
b0 /
b0 4
1'
#1480000
0'
0&
#1485000
1"
03
b1 /
b1 4
b10 1
1'
#1490000
b11 #
b11 *
b11 .
0!
b111 -
b1011 +
0'
1&
#1495000
0"
b1 1
13
b0 /
b0 4
1'
#1500000
0'
0&
#1505000
1"
03
b1 /
b1 4
b11 1
1'
#1510000
b10 #
b10 *
b10 .
1!
b101 +
b1111 -
0'
1&
#1515000
13
b0 /
b0 4
1'
#1520000
0'
0&
#1525000
03
b1 /
b1 4
b10 1
1'
#1530000
b0 #
b0 *
b0 .
b1110 -
b1010 +
0'
1&
#1535000
0"
b1 1
13
b0 /
b0 4
1'
#1540000
0'
0&
#1545000
03
b1 /
b1 4
b0 1
1'
#1550000
b1 #
b1 *
b1 .
b1101 +
b1100 -
0'
1&
#1555000
13
b0 /
b0 4
1'
#1560000
0'
0&
#1565000
03
b1 /
b1 4
b1 1
1'
#1570000
b1 #
b1 *
b1 .
b1000 -
b1110 +
0'
1&
#1575000
1"
b10 1
13
b0 /
b0 4
1'
#1580000
0'
0&
#1585000
0"
03
b1 /
b1 4
b1 1
1'
#1590000
b10 #
b10 *
b10 .
0!
b1111 +
b1 -
0'
1&
#1595000
1"
b10 1
13
b0 /
b0 4
1'
#1600000
0'
0&
#1605000
03
b1 /
b1 4
1'
#1610000
b1 #
b1 *
b1 .
b10 -
b111 +
0'
1&
#1615000
0"
b1 1
13
b0 /
b0 4
1'
#1620000
0'
0&
#1625000
03
b1 /
b1 4
1'
#1630000
b0 #
b0 *
b0 .
b11 +
b100 -
0'
1&
#1635000
1"
b10 1
13
b0 /
b0 4
1'
#1640000
0'
0&
#1645000
0"
03
b1 /
b1 4
b0 1
1'
#1650000
b11 #
b11 *
b11 .
1!
b1001 -
b1 +
0'
1&
#1655000
13
b0 /
b0 4
1'
#1660000
0'
0&
#1665000
1"
03
b1 /
b1 4
b11 1
1'
#1670000
b11 #
b11 *
b11 .
0!
b1000 +
b11 -
0'
1&
#1675000
13
b0 /
b0 4
1'
#1680000
0'
0&
#1685000
03
b1 /
b1 4
1'
#1690000
b1 #
b1 *
b1 .
b110 -
b100 +
0'
1&
#1695000
13
b0 /
b0 4
1'
#1700000
0'
0&
#1705000
0"
03
b1 /
b1 4
b1 1
1'
#1710000
b11 #
b11 *
b11 .
1!
b10 +
b1101 -
0'
1&
#1715000
1"
b10 1
13
b0 /
b0 4
1'
#1720000
0'
0&
#1725000
03
b1 /
b1 4
b11 1
1'
#1730000
b0 #
b0 *
b0 .
b1010 -
b1001 +
0'
1&
#1735000
13
b0 /
b0 4
1'
#1740000
0'
0&
#1745000
0"
03
b1 /
b1 4
b0 1
1'
#1750000
b10 #
b10 *
b10 .
0!
b1100 +
b101 -
0'
1&
#1755000
13
b0 /
b0 4
1'
#1760000
0'
0&
#1765000
1"
03
b1 /
b1 4
b10 1
1'
#1770000
b10 #
b10 *
b10 .
1!
b1011 -
b110 +
0'
1&
#1775000
0"
b1 1
13
b0 /
b0 4
1'
#1780000
0'
0&
#1785000
1"
03
b1 /
b1 4
b10 1
1'
#1790000
b11 #
b11 *
b11 .
0!
b1011 +
b111 -
0'
1&
#1795000
0"
b1 1
13
b0 /
b0 4
1'
#1800000
0'
0&
#1805000
1"
03
b1 /
b1 4
b11 1
1'
#1810000
b10 #
b10 *
b10 .
1!
b1111 -
b101 +
0'
1&
#1815000
13
b0 /
b0 4
1'
#1820000
0'
0&
#1825000
03
b1 /
b1 4
b10 1
1'
#1830000
b0 #
b0 *
b0 .
b1010 +
b1110 -
0'
1&
#1835000
0"
b1 1
13
b0 /
b0 4
1'
#1840000
0'
0&
#1845000
03
b1 /
b1 4
b0 1
1'
#1850000
b1 #
b1 *
b1 .
b1100 -
b1101 +
0'
1&
#1855000
13
b0 /
b0 4
1'
#1860000
0'
0&
#1865000
03
b1 /
b1 4
b1 1
1'
#1870000
b1 #
b1 *
b1 .
b1110 +
b1000 -
0'
1&
#1875000
1"
b10 1
13
b0 /
b0 4
1'
#1880000
0'
0&
#1885000
0"
03
b1 /
b1 4
b1 1
1'
#1890000
b10 #
b10 *
b10 .
0!
b1 -
b1111 +
0'
1&
#1895000
1"
b10 1
13
b0 /
b0 4
1'
#1900000
0'
0&
#1905000
03
b1 /
b1 4
1'
#1910000
b1 #
b1 *
b1 .
b111 +
b10 -
0'
1&
#1915000
0"
b1 1
13
b0 /
b0 4
1'
#1920000
0'
0&
#1925000
03
b1 /
b1 4
1'
#1930000
b0 #
b0 *
b0 .
b100 -
b11 +
0'
1&
#1935000
1"
b10 1
13
b0 /
b0 4
1'
#1940000
0'
0&
#1945000
0"
03
b1 /
b1 4
b0 1
1'
#1950000
b11 #
b11 *
b11 .
1!
b1 +
b1001 -
0'
1&
#1955000
13
b0 /
b0 4
1'
#1960000
0'
0&
#1965000
1"
03
b1 /
b1 4
b11 1
1'
#1970000
b11 #
b11 *
b11 .
0!
b11 -
b1000 +
0'
1&
#1975000
13
b0 /
b0 4
1'
#1980000
0'
0&
#1985000
03
b1 /
b1 4
1'
#1990000
b1 #
b1 *
b1 .
b100 +
b110 -
0'
1&
#1995000
13
b0 /
b0 4
1'
#2000000
0'
0&
#2005000
0"
03
b1 /
b1 4
b1 1
1'
#2010000
b11 #
b11 *
b11 .
1!
b1101 -
b10 +
0'
1&
#2015000
1"
b10 1
13
b0 /
b0 4
1'
#2020000
0'
0&
#2025000
03
b1 /
b1 4
b11 1
1'
#2030000
b0 #
b0 *
b0 .
b1001 +
b1010 -
0'
1&
#2035000
13
b0 /
b0 4
1'
#2040000
0'
0&
#2045000
0"
03
b1 /
b1 4
b0 1
1'
#2050000
b10 #
b10 *
b10 .
0!
b101 -
b1100 +
0'
1&
#2055000
13
b0 /
b0 4
1'
#2060000
0'
0&
#2065000
1"
03
b1 /
b1 4
b10 1
1'
#2070000
b10 #
b10 *
b10 .
1!
b110 +
b1011 -
0'
1&
#2075000
0"
b1 1
13
b0 /
b0 4
1'
#2080000
0'
0&
#2085000
1"
03
b1 /
b1 4
b10 1
1'
#2090000
b11 #
b11 *
b11 .
0!
b111 -
b1011 +
0'
1&
#2095000
0"
b1 1
13
b0 /
b0 4
1'
#2100000
0'
0&
#2105000
1"
03
b1 /
b1 4
b11 1
1'
#2110000
b10 #
b10 *
b10 .
1!
b101 +
b1111 -
0'
1&
#2115000
13
b0 /
b0 4
1'
#2120000
0'
0&
#2125000
03
b1 /
b1 4
b10 1
1'
#2130000
b0 #
b0 *
b0 .
b1110 -
b1010 +
0'
1&
#2135000
0"
b1 1
13
b0 /
b0 4
1'
#2140000
0'
0&
#2145000
03
b1 /
b1 4
b0 1
1'
#2150000
b1 #
b1 *
b1 .
b1101 +
b1100 -
0'
1&
#2155000
13
b0 /
b0 4
1'
#2160000
0'
0&
#2165000
03
b1 /
b1 4
b1 1
1'
#2170000
b1 #
b1 *
b1 .
b1000 -
b1110 +
0'
1&
#2175000
1"
b10 1
13
b0 /
b0 4
1'
#2180000
0'
0&
#2185000
0"
03
b1 /
b1 4
b1 1
1'
#2190000
b10 #
b10 *
b10 .
0!
b1111 +
b1 -
0'
1&
#2195000
1"
b10 1
13
b0 /
b0 4
1'
#2200000
0'
0&
#2205000
03
b1 /
b1 4
1'
#2210000
b1 #
b1 *
b1 .
b10 -
b111 +
0'
1&
#2215000
0"
b1 1
13
b0 /
b0 4
1'
#2220000
0'
0&
#2225000
03
b1 /
b1 4
1'
#2230000
b0 #
b0 *
b0 .
b11 +
b100 -
0'
1&
#2235000
1"
b10 1
13
b0 /
b0 4
1'
#2240000
0'
0&
#2245000
0"
03
b1 /
b1 4
b0 1
1'
#2250000
b11 #
b11 *
b11 .
1!
b1001 -
b1 +
0'
1&
#2255000
13
b0 /
b0 4
1'
#2260000
0'
0&
#2265000
1"
03
b1 /
b1 4
b11 1
1'
#2270000
b11 #
b11 *
b11 .
0!
b1000 +
b11 -
0'
1&
#2275000
13
b0 /
b0 4
1'
#2280000
0'
0&
#2285000
03
b1 /
b1 4
1'
#2290000
b1 #
b1 *
b1 .
b110 -
b100 +
0'
1&
#2295000
13
b0 /
b0 4
1'
#2300000
0'
0&
#2305000
0"
03
b1 /
b1 4
b1 1
1'
#2310000
b11 #
b11 *
b11 .
1!
b10 +
b1101 -
0'
1&
#2315000
1"
b10 1
13
b0 /
b0 4
1'
#2320000
0'
0&
#2325000
03
b1 /
b1 4
b11 1
1'
#2330000
b0 #
b0 *
b0 .
b1010 -
b1001 +
0'
1&
#2335000
13
b0 /
b0 4
1'
#2340000
0'
0&
#2345000
0"
03
b1 /
b1 4
b0 1
1'
#2350000
b10 #
b10 *
b10 .
0!
b1100 +
b101 -
0'
1&
#2355000
13
b0 /
b0 4
1'
#2360000
0'
0&
#2365000
1"
03
b1 /
b1 4
b10 1
1'
#2370000
b10 #
b10 *
b10 .
1!
b1011 -
b110 +
0'
1&
#2375000
0"
b1 1
13
b0 /
b0 4
1'
#2380000
0'
0&
#2385000
1"
03
b1 /
b1 4
b10 1
1'
#2390000
b11 #
b11 *
b11 .
0!
b1011 +
b111 -
0'
1&
#2395000
0"
b1 1
13
b0 /
b0 4
1'
#2400000
0'
0&
#2405000
1"
03
b1 /
b1 4
b11 1
1'
#2410000
b10 #
b10 *
b10 .
1!
b1111 -
b101 +
0'
1&
#2415000
13
b0 /
b0 4
1'
#2420000
0'
0&
#2425000
03
b1 /
b1 4
b10 1
1'
#2430000
b0 #
b0 *
b0 .
b1010 +
b1110 -
0'
1&
#2435000
0"
b1 1
13
b0 /
b0 4
1'
#2440000
0'
0&
#2445000
03
b1 /
b1 4
b0 1
1'
#2450000
b1 #
b1 *
b1 .
b1100 -
b1101 +
0'
1&
#2455000
13
b0 /
b0 4
1'
#2460000
0'
0&
#2465000
03
b1 /
b1 4
b1 1
1'
#2470000
b1 #
b1 *
b1 .
b1110 +
b1000 -
0'
1&
#2475000
1"
b10 1
13
b0 /
b0 4
1'
#2480000
0'
0&
#2485000
0"
03
b1 /
b1 4
b1 1
1'
#2490000
b10 #
b10 *
b10 .
0!
b1 -
b1111 +
0'
1&
#2495000
1"
b10 1
13
b0 /
b0 4
1'
#2500000
0'
0&
#2505000
03
b1 /
b1 4
1'
#2510000
b1 #
b1 *
b1 .
b111 +
b10 -
0'
1&
#2515000
0"
b1 1
13
b0 /
b0 4
1'
#2520000
0'
0&
#2525000
03
b1 /
b1 4
1'
#2530000
b0 #
b0 *
b0 .
b100 -
b11 +
0'
1&
#2535000
1"
b10 1
13
b0 /
b0 4
1'
#2540000
0'
0&
#2545000
0"
03
b1 /
b1 4
b0 1
1'
#2550000
b11 #
b11 *
b11 .
1!
b1 +
b1001 -
0'
1&
#2555000
13
b0 /
b0 4
1'
#2560000
0'
0&
#2565000
1"
03
b1 /
b1 4
b11 1
1'
#2570000
b11 #
b11 *
b11 .
0!
b11 -
b1000 +
0'
1&
#2575000
13
b0 /
b0 4
1'
#2580000
0'
0&
#2585000
03
b1 /
b1 4
1'
#2590000
b1 #
b1 *
b1 .
b100 +
b110 -
0'
1&
#2595000
13
b0 /
b0 4
1'
#2600000
0'
0&
#2605000
0"
03
b1 /
b1 4
b1 1
1'
#2610000
b11 #
b11 *
b11 .
1!
b1101 -
b10 +
0'
1&
#2615000
1"
b10 1
13
b0 /
b0 4
1'
#2620000
0'
0&
#2625000
03
b1 /
b1 4
b11 1
1'
#2630000
b0 #
b0 *
b0 .
b1001 +
b1010 -
0'
1&
#2635000
13
b0 /
b0 4
1'
#2640000
0'
0&
#2645000
0"
03
b1 /
b1 4
b0 1
1'
#2650000
b10 #
b10 *
b10 .
0!
b101 -
b1100 +
0'
1&
#2655000
13
b0 /
b0 4
1'
#2660000
0'
0&
#2665000
1"
03
b1 /
b1 4
b10 1
1'
#2670000
b10 #
b10 *
b10 .
1!
b110 +
b1011 -
0'
1&
#2675000
0"
b1 1
13
b0 /
b0 4
1'
#2680000
0'
0&
#2685000
1"
03
b1 /
b1 4
b10 1
1'
#2690000
b11 #
b11 *
b11 .
0!
b111 -
b1011 +
0'
1&
#2695000
0"
b1 1
13
b0 /
b0 4
1'
#2700000
0'
0&
#2705000
1"
03
b1 /
b1 4
b11 1
1'
#2710000
b10 #
b10 *
b10 .
1!
b101 +
b1111 -
0'
1&
#2715000
13
b0 /
b0 4
1'
#2720000
0'
0&
#2725000
03
b1 /
b1 4
b10 1
1'
#2730000
b0 #
b0 *
b0 .
b1110 -
b1010 +
0'
1&
#2735000
0"
b1 1
13
b0 /
b0 4
1'
#2740000
0'
0&
#2745000
03
b1 /
b1 4
b0 1
1'
#2750000
b1 #
b1 *
b1 .
b1101 +
b1100 -
0'
1&
#2755000
13
b0 /
b0 4
1'
#2760000
0'
0&
#2765000
03
b1 /
b1 4
b1 1
1'
#2770000
b1 #
b1 *
b1 .
b1000 -
b1110 +
0'
1&
#2775000
1"
b10 1
13
b0 /
b0 4
1'
#2780000
0'
0&
#2785000
0"
03
b1 /
b1 4
b1 1
1'
#2790000
b10 #
b10 *
b10 .
0!
b1111 +
b1 -
0'
1&
#2795000
1"
b10 1
13
b0 /
b0 4
1'
#2800000
0'
0&
#2805000
03
b1 /
b1 4
1'
#2810000
b1 #
b1 *
b1 .
b10 -
b111 +
0'
1&
#2815000
0"
b1 1
13
b0 /
b0 4
1'
#2820000
0'
0&
#2825000
03
b1 /
b1 4
1'
#2830000
b0 #
b0 *
b0 .
b11 +
b100 -
0'
1&
#2835000
1"
b10 1
13
b0 /
b0 4
1'
#2840000
0'
0&
#2845000
0"
03
b1 /
b1 4
b0 1
1'
#2850000
b11 #
b11 *
b11 .
1!
b1001 -
b1 +
0'
1&
#2855000
13
b0 /
b0 4
1'
#2860000
0'
0&
#2865000
1"
03
b1 /
b1 4
b11 1
1'
#2870000
b11 #
b11 *
b11 .
0!
b1000 +
b11 -
0'
1&
#2875000
13
b0 /
b0 4
1'
#2880000
0'
0&
#2885000
03
b1 /
b1 4
1'
