simulation/vcd/SyncFifo.vcd
$date
	Thu May 23 22:09:24 2024
$end
$version
	Icarus Verilog
$end
$timescale
	1ps
$end
$scope module SyncFifo_tb $end
$var wire 1 ! full $end
$var wire 1 " empty $end
$var wire 8 # data_out [7:0] $end
$var parameter 32 $ DEPTH $end
$var parameter 32 % PERIOD $end
$var parameter 32 & WIDTH $end
$var reg 1 ' clk_sig $end
$var reg 8 ( data_in [7:0] $end
$var reg 1 ) r_en_sig $end
$var reg 1 * rst_sig $end
$var reg 1 + w_en_sig $end
$scope module u_SyncFifo $end
$var wire 1 ' clk_sig $end
$var wire 8 , data_in [7:0] $end
$var wire 1 ! full $end
$var wire 1 ) r_en_sig $end
$var wire 1 * rst_sig $end
$var wire 1 + w_en_sig $end
$var wire 1 " empty $end
$var parameter 32 - DEPTH $end
$var parameter 32 . PTR_WIDTH $end
$var parameter 32 / WIDTH $end
$var reg 8 0 data_out [7:0] $end
$var reg 4 1 r_ptr [3:0] $end
$var reg 4 2 w_ptr [3:0] $end
$upscope $end
$scope task drive $end
$var integer 32 3 delay [31:0] $end
$upscope $end
$scope task pop $end
$upscope $end
$scope task push $end
$upscope $end
$upscope $end
$enddefinitions $end
$comment Show the parameter values. $end
$dumpall
b1000 /
b11 .
b1000 -
b1000 &
b1010 %
b1000 $
$end
#0
$dumpvars
b0 3
bx 2
bx 1
bx 0
b0 ,
0+
0*
0)
b0 (
0'
bx #
x"
x!
$end
#5000
0!
b0 #
b0 0
1"
b0 1
b0 2
1'
#10000
0'
#15000
1'
#20000
0'
b10100 3
1*
#25000
b100100 (
b100100 ,
1+
1'
#30000
0'
#35000
0"
b1 2
b10000001 (
b10000001 ,
1'
#40000
0'
#45000
b10 2
1)
b1001 (
b1001 ,
1'
#50000
0'
#55000
b1 1
b100100 #
b100100 0
b11 2
b1100011 (
b1100011 ,
1'
#60000
0'
#65000
b100 2
b10 1
b10000001 #
b10000001 0
b1101 (
b1101 ,
1'
#70000
0'
#75000
b11 1
b1001 #
b1001 0
b101 2
b10001101 (
b10001101 ,
1'
#80000
0'
#85000
b110 2
b100 1
b1100011 #
b1100011 0
b1100101 (
b1100101 ,
1'
#90000
0'
#95000
b101 1
b1101 #
b1101 0
b111 2
b10010 (
b10010 ,
1'
#100000
0'
#105000
b1000 2
b110 1
b10001101 #
b10001101 0
b1 (
b1 ,
1'
#110000
0'
#115000
b111 1
b1100101 #
b1100101 0
b1001 2
b1101 (
b1101 ,
1'
#116000
0+
#120000
0'
#125000
b1000 1
b10010 #
b10010 0
1'
#130000
0'
#135000
1"
b1001 1
b1 #
b1 0
1'
#136000
b101000 3
0)
#140000
0'
#145000
b1110110 (
b1110110 ,
1+
1'
#150000
0'
#155000
0"
b1010 2
b111101 (
b111101 ,
1'
#160000
0'
#165000
b1011 2
b11101101 (
b11101101 ,
1'
#170000
0'
#175000
b1100 2
b10001100 (
b10001100 ,
1'
#180000
0'
#185000
b1101 2
b11111001 (
b11111001 ,
1)
1'
#190000
0'
#195000
b1010 1
b1110110 #
b1110110 0
b1110 2
b11000110 (
b11000110 ,
1'
#200000
0'
#205000
b1111 2
b1011 1
b111101 #
b111101 0
b11000101 (
b11000101 ,
1'
#210000
0'
#215000
b1100 1
b11101101 #
b11101101 0
b0 2
b10101010 (
b10101010 ,
1'
#220000
0'
#225000
b1 2
b1101 1
b10001100 #
b10001100 0
b11100101 (
b11100101 ,
1'
#230000
0'
#235000
b1110 1
b11111001 #
b11111001 0
b10 2
b1110111 (
b1110111 ,
1'
#236000
0+
#240000
0'
#245000
b1111 1
b11000110 #
b11000110 0
1'
#250000
0'
#255000
b0 1
b11000101 #
b11000101 0
1'
#260000
0'
#265000
b1 1
b10101010 #
b10101010 0
1'
#270000
0'
#275000
1"
b10 1
b11100101 #
b11100101 0
1'
#276000
b1010000 3
0)
#280000
0'
#285000
b10010 (
b10010 ,
1+
1'
#290000
0'
#295000
0"
b11 2
b10001111 (
b10001111 ,
1'
#300000
0'
#305000
b100 2
b11110010 (
b11110010 ,
1'
#310000
0'
#315000
b101 2
b11001110 (
b11001110 ,
1'
#320000
0'
#325000
b110 2
b11101000 (
b11101000 ,
1'
#330000
0'
#335000
b111 2
b11000101 (
b11000101 ,
1'
#340000
0'
#345000
b1000 2
b1011100 (
b1011100 ,
1'
#350000
0'
#355000
b1001 2
b10111101 (
b10111101 ,
1'
#360000
0'
#365000
1!
b1010 2
b101101 (
b101101 ,
1)
1'
#370000
0'
#375000
0!
b11 1
b10010 #
b10010 0
0+
1'
#380000
0'
#385000
b100 1
b10001111 #
b10001111 0
1'
#390000
0'
#395000
b101 1
b11110010 #
b11110010 0
1'
#400000
0'
#405000
b110 1
b11001110 #
b11001110 0
1'
#410000
0'
#415000
b111 1
b11101000 #
b11101000 0
1'
#420000
0'
#425000
b1000 1
b11000101 #
b11000101 0
1'
#430000
0'
#435000
b1001 1
b1011100 #
b1011100 0
1'
#440000
0'
#445000
1"
b1010 1
b10111101 #
b10111101 0
1'
#450000
0'
#455000
0)
1'
